Classify version of NUTS codes — classify_nuts • nuts
…
# Classify version of NUTS 2 codes in Germany
manure %>%
 filter(nchar(geo) == 4) %>%
 filter(indic_ag == 'I07A_EQ_Y') %>%
 filter(grepl('^DE', geo)) %>%
 filter(time == 2003) %>%
 select(-indic_ag, -time) %>%
 # Data varies at the NUTS code level
 classify_nuts(nuts_code = 'geo')
#> $data
#> # A tibble: 36 × 5
#>    from_code from_version from_level country values
#>    <chr>     <chr>             <dbl> <chr>    <dbl>
#>  1 DE11      2006                  2 Germany  11320
#>  2 DE12      2006                  2 Germany   3710
#>  3 DE13      2006                  2 Germany   9710
#>  4 DE14      2006                  2 Germany  11220
#>  5 DE21      2006                  2 Germany  22760
#>  6 DE22      2006                  2 Germany  16390
#>  7 DE23      2006                  2 Germany  12500
#>  8 DE24      2006                  2 Germany   8440
#>  9 DE25      2006                  2 Germany  10380
#> 10 DE26      2006                  2 Germany   6150
#> # ℹ 26 more rows
…
# Classify version of NUTS 3 codes within country and year
manure %>%
  filter(nchar(geo) == 5) %>%
  filter(indic_ag == 'I07A_EQ_Y') %>%
  select(-indic_ag) %>%
  # Data varies at the year x country x NUTS code level. The country grouping
  # is always used by default.
  classify_nuts(nuts_code = 'geo', group_vars = 'time')
#> $data
#> # A tibble: 1,902 × 6
#>    from_code from_version from_level country  time values
#>    <chr>     <chr>             <dbl> <chr>   <dbl>  <dbl>
#>  1 AT111     2021                  3 Austria  2010    276
#>  2 AT112     2021                  3 Austria  2010    482
#>  3 AT113     2021                  3 Austria  2010   1422
#>  4 AT121     2021                  3 Austria  2010   6889
#>  5 AT122     2021                  3 Austria  2010   3133
#>  6 AT123     2021                  3 Austria  2010   2027
#>  7 AT124     2021                  3 Austria  2010   5870
#>  8 AT125     2021                  3 Austria  2010    905
#>  9 AT126     2021                  3 Austria  2010   1103
#> 10 AT127     2021                  3 Austria  2010    506
#> # ℹ 1,892 more rows
#> 
#> $versions_data
#> # A tibble: 312 × 4
#> # Groups:   country, time [67]
#>    from_version country  time overlap_perc
#>    <chr>        <chr>   <dbl>        <dbl>
#>  1 2021         Austria  2010        100  
#>  2 2016         Austria  2010        100  
#>  3 2013         Austria  2010        100  
#>  4 2010         Austria  2010        100  
#>  5 2006         Austria  2010        100  
#>  6 2016         Belgium  2000        100  
#>  7 2013         Belgium  2000        100  
#>  8 2010         Belgium  2000        100  
#>  9 2006         Belgium  2000        100  
#> 10 2021         Belgium  2000         81.8
#> # ℹ 302 more rows
#> 
#> $missing_data
#> # A tibble: 324 × 5
#> # Groups:   from_version, country, time [16]
#>    from_code from_version from_level country  time
#>    <chr>     <chr>             <dbl> <chr>   <dbl>
#>  1 CZ010     2021                  3 Czechia  2003
#>  2 DK011     2021                  3 Denmark  2003
#>  3 DK012     2021                  3 Denmark  2003
#>  4 EE001     2016                  3 Estonia  2003
#>  5 EE007     2016                  3 Estonia  2003
#>  6 EL111     2010                  3 Greece   2003
#>  7 EL112     2010                  3 Greece   2003
#>  8 EL113     2010                  3 Greece   2003
#>  9 EL114     2010                  3 Greece   2003
#> 10 EL115     2010                  3 Greece   2003
#> # ℹ 314 more rows
…
