Convert between NUTS versions — convert_nuts_version • nuts
…
                       variables = c('values' = 'absolute'))
#> 
#> Classifying version of NUTS codes
#> ----------------------------------
#> => These NUTS codes cannot be identified or classified: DEZZ.
#> => Within groups defined by country.
#> ==> Missing NUTS codes detected. See the tibble 'Missing NUTS codes...' in the output.
#> 
#> Converting versions of NUTS codes
#> ---------------------------------
#> => Converting NUTS codes in version(s) 2006 to version 2021.
#> => These NUTS codes cannot be converted and are dropped from the dataset: DEZZ.
#> => Within groups defined by country.
#> ==> Missing NUTS codes in data. No values are calculated for regions associated with missing NUTS codes. Ensure that the input data is complete.
#> # A tibble: 38 × 4
#>    to_code to_version country values
#>    <chr>   <chr>      <chr>    <dbl>
#>  1 DE11    2021       Germany  11320
#>  2 DE12    2021       Germany   3710
#>  3 DE13    2021       Germany   9710
#>  4 DE14    2021       Germany  11220
#>  5 DE21    2021       Germany  22760
#>  6 DE22    2021       Germany  16390
#>  7 DE23    2021       Germany  12500
#>  8 DE24    2021       Germany   8440
#>  9 DE25    2021       Germany  10380
#> 10 DE26    2021       Germany   6150
#> # ℹ 28 more rows
…
                       variables = c('values' = 'absolute'))
#> 
#> Classifying version of NUTS codes
#> ----------------------------------
#> => These NUTS codes cannot be identified or classified: ME000, NOZZZ.
#> => Within groups defined by country x time.
#> ==> Missing NUTS codes detected. See the tibble 'Missing NUTS codes...' in the output.
#> 
#> Converting versions of NUTS codes
#> ---------------------------------
#> => Converting NUTS codes in version(s) 2006, 2010, 2013, 2016, 2021 to version 2021.
#> => These NUTS codes cannot be converted and are dropped from the dataset: ME000, NOZZZ.
#> => Within groups defined by country x time.
#> ==> Missing NUTS codes in data. No values are calculated for regions associated with missing NUTS codes. Ensure that the input data is complete.
#> # A tibble: 2,296 × 5
#>    to_code to_version country  time values
#>    <chr>   <chr>      <chr>   <dbl>  <dbl>
#>  1 AT111   2021       Austria  2010    276
#>  2 AT112   2021       Austria  2010    482
#>  3 AT113   2021       Austria  2010   1422
#>  4 AT121   2021       Austria  2010   6889
#>  5 AT122   2021       Austria  2010   3133
#>  6 AT123   2021       Austria  2010   2027
#>  7 AT124   2021       Austria  2010   5870
#>  8 AT125   2021       Austria  2010    905
#>  9 AT126   2021       Austria  2010   1103
#> 10 AT127   2021       Austria  2010    506
#> # ℹ 2,286 more rows
…
