Convert between NUTS levels — convert_nuts_level • nuts
…
#> Classifying version of NUTS codes
#> -----------------------------------
#> ℹ => These NUTS codes cannot be identified or classified: ME000, ME000, ME000, ME000, ME000, ME000, ME000, ME000, NOZZZ, NOZZZ, NOZZZ, NOZZZ, SIZZZ, and NOZZZ.
#> ℹ => Within groups defined by country, indic_ag, and time.
#> ! ==> Missing NUTS codes detected. See the tibble 'missing_data' in the output.
#> 
#> Converting level of NUTS codes
#> ------------------------------
#> ℹ => Aggregate from NUTS regional level 3 to 2.
#> ! => These NUTS codes cannot be converted and are dropped from the dataset: ME000, NOZZZ, and SIZZZ.
#> ℹ => Within groups defined by country, indic_ag, and time.
#> ! => Missing NUTS codes in data.
#> ! ==> No values are calculated for regions associated with missing NUTS codes. Ensure that the input data is complete.
#> 
#> # A tibble: 4,814 × 5
#>    to_code country indic_ag     time values
#>    <chr>   <chr>   <chr>       <dbl>  <dbl>
#>  1 AT11    Austria I07A1_EQ_Y   2010   2110
#>  2 AT11    Austria I07A1_EQ_YC  2010    337
#>  3 AT11    Austria I07A2_EQ_Y   2010    802
#>  4 AT11    Austria I07A2_EQ_YC  2010    756
#>  5 AT11    Austria I07A31_EQ_Y  2010    278
#>  6 AT11    Austria I07A32_EQ_Y  2010     31
#>  7 AT11    Austria I07A3_EQ_YC  2010    261
#>  8 AT11    Austria I07A_EQ_Y    2010   2180
#>  9 AT12    Austria I07A1_EQ_Y   2010  19250
#> 10 AT12    Austria I07A1_EQ_YC  2010   1853
#> # ℹ 4,804 more rows
…
